06-11-2015 08:20:43; User successfully logged in with CPR: admin; 
06-11-2015 08:21:28; User failed to login with CPR: 1107802335; 
06-11-2015 08:22:31; User failed to login with CPR: 3123; 
06-11-2015 08:23:56; User failed to login with CPR: 1234; 
06-11-2015 08:24:15; User failed to login with CPR: 1234; 
06-11-2015 08:24:15; User failed to login with CPR: 1234; 
06-11-2015 08:24:15; User failed to login with CPR: 1234; 
06-11-2015 08:24:15; User failed to login with CPR: 1234; 
06-11-2015 08:24:15; User failed to login with CPR: 1234; 
06-11-2015 08:24:15; User failed to login with CPR: 1234; 
06-11-2015 08:24:15; User failed to login with CPR: 1234; 
06-11-2015 08:26:08; User failed to login with CPR: 1234; 
06-11-2015 08:26:08; User failed to login with CPR: 1234; 
06-11-2015 08:26:08; User failed to login with CPR: 1234; 
06-11-2015 08:26:08; User failed to login with CPR: 1234; 
06-11-2015 08:26:08; User failed to login with CPR: 1234; 
06-11-2015 08:26:08; User failed to login with CPR: 1234; 
06-11-2015 08:26:08; User failed to login with CPR: 1234; 
06-11-2015 08:26:22; User failed to login with CPR: 1234; 
06-11-2015 08:26:22; User failed to login with CPR: 1234; 
06-11-2015 08:26:22; User failed to login with CPR: 1234; 
06-11-2015 08:26:22; User failed to login with CPR: 1234; 
06-11-2015 08:26:22; User failed to login with CPR: 1234; 
06-11-2015 08:26:22; User failed to login with CPR: 1234; 
06-11-2015 08:26:22; User failed to login with CPR: 1234; 
06-11-2015 08:26:32; User failed to login with CPR: 1107802335; 
06-11-2015 08:26:32; User failed to login with CPR: 1107802335; 
06-11-2015 08:26:32; User failed to login with CPR: 1107802335; 
06-11-2015 08:26:32; User failed to login with CPR: 1107802335; 
06-11-2015 08:26:32; User failed to login with CPR: 1107802335; 
06-11-2015 08:26:32; User failed to login with CPR: 1107802335; 
06-11-2015 08:26:34; User successfully logged in with CPR: 1107802335; 
06-11-2015 08:27:17; User failed to login with CPR: 1234; 
06-11-2015 08:27:17; User failed to login with CPR: 1234; 
06-11-2015 08:27:17; User failed to login with CPR: 1234; 
06-11-2015 08:27:17; User failed to login with CPR: 1234; 
06-11-2015 08:27:17; User failed to login with CPR: 1234; 
06-11-2015 08:27:17; User failed to login with CPR: 1234; 
06-11-2015 08:27:17; User failed to login with CPR: 1234; 
06-11-2015 08:27:21; User failed to login with CPR: 1107802335; 
06-11-2015 08:27:21; User failed to login with CPR: 1107802335; 
06-11-2015 08:27:21; User failed to login with CPR: 1107802335; 
06-11-2015 08:27:21; User failed to login with CPR: 1107802335; 
06-11-2015 08:27:21; User failed to login with CPR: 1107802335; 
06-11-2015 08:27:21; User failed to login with CPR: 1107802335; 
06-11-2015 08:27:23; User successfully logged in with CPR: 1107802335; 
06-11-2015 08:27:47; User successfully logged in with CPR: admin; 
06-11-2015 08:45:49; User successfully logged in with CPR: admin; 
06-11-2015 08:48:04; User successfully logged in with CPR: admin; 
06-11-2015 08:48:49; User successfully logged in with CPR: admin; 
06-11-2015 08:49:35; User successfully logged in with CPR: admin; 
